<?xml version="1.0" encoding="UTF-8"?>
<svg width="365px" height="1px" viewBox="0 0 365 1" version="1.1" xmlns="http://www.w3.org/2000/svg" xmlns:xlink="http://www.w3.org/1999/xlink">
    <!-- Generator: Sketch 48.2 (47327) - http://www.bohemiancoding.com/sketch -->
    <title>Dividers/Center</title>
    <desc>Created with Sketch.</desc>
    <defs></defs>
    <g id="Symbols" stroke="none" stroke-width="1" fill="none" fill-rule="evenodd" fill-opacity="0.25">
        <g id="Dividers/Center" fill="#FFFFFF">
            <rect id="Rectangle-3" x="0" y="0" width="365" height="1"></rect>
        </g>
    </g>
</svg>